hw2/CONV.vcd
$date
    Oct 25, 2016  17:36:02
$end
$version
    TOOL:	ncsim	10.20-s114
$end
$timescale
    10 ps
$end

$scope module test_conv $end
$var parameter 32 !    N_DATAOUT  $end
$var parameter 32 "    N_DATAIN  $end
$var reg       1 #    clk  $end
$var reg       1 $    reset  $end
$var reg       1 %    in_en  $end
$var reg       4 &    Din [3:0] $end
$var wire      1 '    busy  $end
$var wire      1 (    out_valid  $end
$var wire      8 )    Dout [7:0] $end
$var reg       8 *    out_temp [7:0] $end
$var reg       1 +    stop  $end
$var integer  32 ,    i  $end
$var integer  32 -    out_f  $end
$var integer  32 .    err  $end
$var integer  32 /    pass  $end
$var integer  32 0    exp_num  $end
$var integer  32 1    times  $end
$var reg       1 2    over  $end

$scope module CONV $end
$var wire      1 3    clk  $end
$var wire      1 4    reset  $end
$var wire      4 5    Din [3:0] $end
$var wire      1 6    in_en  $end
$var reg       1 7    busy  $end
$var reg       1 8    out_valid  $end
$var reg       8 9    Dout [7:0] $end
$var reg       1 :    busy_temp  $end
$var reg       1 ;    out_valid_temp  $end
$var reg       8 <    Dout_temp [7:0] $end
$var reg       5 =    count_input [4:0] $end
$var reg       5 >    count_input_temp [4:0] $end
$var reg       5 ?    count_output [4:0] $end
$var reg       5 @    count_output_temp [4:0] $end
$var reg       2 A    state [1:0] $end
$var reg       2 B    next_state [1:0] $end
$var integer  32 C    i  $end
$var parameter  2 D    start_state  $end
$var parameter  2 E    input_state  $end
$var parameter  2 F    output_state  $end
$upscope $end

$upscope $end

$enddefinitions $end
$dumpvars
b10 F
b1 E
b0 D
b1010000 "
b1001011 !
0#
1$
0%
bz &
1'
0(
b0 )
bx *
0+
bx ,
b10 -
b0 .
b0 /
b0 0
b1 1
02
03
14
bz 5
06
17
08
b0 9
1:
0;
b0 <
b0 =
b0 >
b0 ?
b0 @
b0 A
b1 B
b1111 C
$end
#500
1#
b100 *
13
b0 C
b1 C
b10 C
b11 C
b100 C
b101 C
b110 C
b111 C
b1000 C
b0 C
b1 C
b10 C
b11 C
b100 C
b101 C
b110 C
b111 C
b1000 C
b1001 C
b1010 C
b1011 C
b1100 C
b1101 C
b1110 C
b1111 C
b1 A
0:
#1000
0$
0#
03
04
#1500
1#
13
b0 C
b1 C
b10 C
b11 C
b100 C
b101 C
b110 C
b111 C
b1000 C
b0 C
b1 C
b10 C
b11 C
b100 C
b101 C
b110 C
b111 C
b1000 C
b1001 C
b1010 C
b1011 C
b1100 C
b1101 C
b1110 C
b1111 C
07
0'
#2000
0#
03
#2500
1#
13
#3000
0#
b0 ,
b10 &
1%
b1 ,
16
b10 5
03
b1 >
#3500
1#
13
b0 C
b1 C
b10 C
b11 C
b100 C
b101 C
b110 C
b111 C
b1000 C
b0 C
b1 C
b10 C
b11 C
b100 C
b101 C
b110 C
b111 C
b1000 C
b1001 C
b1010 C
b1011 C
b1100 C
b1101 C
b1110 C
b1111 C
b1 =
b10 >
#4000
0#
b10 ,
03
#4500
1#
13
b0 C
b1 C
b10 C
b11 C
b100 C
b101 C
b110 C
b111 C
b1000 C
b0 C
b1 C
b10 C
b11 C
b100 C
b101 C
b110 C
b111 C
b1000 C
b1001 C
b1010 C
b1011 C
b1100 C
b1101 C
b1110 C
b1111 C
b10 =
b11 >
#5000
0#
b11 ,
03
#5500
1#
13
b0 C
b1 C
b10 C
b11 C
b100 C
b101 C
b110 C
b111 C
b1000 C
b0 C
b1 C
b10 C
b11 C
b100 C
b101 C
b110 C
b111 C
b1000 C
b1001 C
b1010 C
b1011 C
b1100 C
b1101 C
b1110 C
b1111 C
b11 =
b100 >
#6000
0#
b100 ,
03
#6500
1#
13
b0 C
b1 C
b10 C
b11 C
b100 C
b101 C
b110 C
b111 C
b1000 C
b0 C
b1 C
b10 C
b11 C
b100 C
b101 C
b110 C
b111 C
b1000 C
b1001 C
b1010 C
b1011 C
b1100 C
b1101 C
b1110 C
b1111 C
b100 =
b101 >
#7000
0#
b101 ,
03
#7500
1#
13
b0 C
b1 C
b10 C
b11 C
b100 C
b101 C
b110 C
b111 C
b1000 C
b0 C
b1 C
b10 C
b11 C
b100 C
b101 C
b110 C
b111 C
b1000 C
b1001 C
b1010 C
b1011 C
b1100 C
b1101 C
b1110 C
b1111 C
b101 =
b110 >
#8000
0#
b110 ,
03
#8500
1#
13
b0 C
b1 C
b10 C
b11 C
b100 C
b101 C
b110 C
b111 C
b1000 C
b0 C
b1 C
b10 C
b11 C
b100 C
b101 C
b110 C
b111 C
b1000 C
b1001 C
b1010 C
b1011 C
b1100 C
b1101 C
b1110 C
b1111 C
b110 =
b111 >
#9000
0#
b111 ,
03
#9500
1#
13
b0 C
b1 C
b10 C
b11 C
b100 C
b101 C
b110 C
b111 C
b1000 C
b0 C
b1 C
b10 C
b11 C
b100 C
b101 C
b110 C
b111 C
b1000 C
b1001 C
b1010 C
b1011 C
b1100 C
b1101 C
b1110 C
b1111 C
b111 =
b1000 >
#10000
0#
b1000 ,
03
#10500
1#
13
b0 C
b1 C
b10 C
b11 C
b100 C
b101 C
b110 C
b111 C
b1000 C
b0 C
b1 C
b10 C
b11 C
b100 C
b101 C
b110 C
b111 C
b1000 C
b1001 C
b1010 C
b1011 C
b1100 C
b1101 C
b1110 C
b1111 C
b1000 =
b1001 >
#11000
0#
b1001 ,
03
#11500
1#
13
b0 C
b1 C
b10 C
b11 C
b100 C
b101 C
b110 C
b111 C
b1000 C
b0 C
b1 C
b10 C
b11 C
b100 C
b101 C
b110 C
b111 C
b1000 C
b1001 C
b1010 C
b1011 C
b1100 C
b1101 C
b1110 C
b1111 C
b1001 =
b1010 >
#12000
0#
b1010 ,
03
#12500
1#
13
b0 C
b1 C
b10 C
b11 C
b100 C
b101 C
b110 C
b111 C
b1000 C
b0 C
b1 C
b10 C
b11 C
b100 C
b101 C
b110 C
b111 C
b1000 C
b1001 C
b1010 C
b1011 C
b1100 C
b1101 C
b1110 C
b1111 C
b1010 =
b1011 >
#13000
0#
b1011 ,
03
#13500
1#
13
b0 C
b1 C
b10 C
b11 C
b100 C
b101 C
b110 C
b111 C
b1000 C
b0 C
b1 C
b10 C
b11 C
b100 C
b101 C
b110 C
b111 C
b1000 C
b1001 C
b1010 C
b1011 C
b1100 C
b1101 C
b1110 C
b1111 C
b1011 =
b1100 >
#14000
0#
b1100 ,
03
#14500
1#
13
b0 C
b1 C
b10 C
b11 C
b100 C
b101 C
b110 C
b111 C
b1000 C
b0 C
b1 C
b10 C
b11 C
b100 C
b101 C
b110 C
b111 C
b1000 C
b1001 C
b1010 C
b1011 C
b1100 C
b1101 C
b1110 C
b1111 C
b1100 =
b1101 >
#15000
0#
b1101 ,
03
#15500
1#
13
b0 C
b1 C
b10 C
b11 C
b100 C
b101 C
b110 C
b111 C
b1000 C
b0 C
b1 C
b10 C
b11 C
b100 C
b101 C
b110 C
b111 C
b1000 C
b1001 C
b1010 C
b1011 C
b1100 C
b1101 C
b1110 C
b1111 C
b1101 =
b1110 >
#16000
0#
b1110 ,
03
#16500
1#
13
b0 C
b1 C
b10 C
b11 C
b100 C
b101 C
b110 C
b111 C
b1000 C
b0 C
b1 C
b10 C
b11 C
b100 C
b101 C
b110 C
b111 C
b1000 C
b1001 C
b1010 C
b1011 C
b1100 C
b1101 C
b1110 C
b1111 C
b1110 =
b1111 >
#17000
0#
b1111 ,
03
#17500
1#
13
b0 C
b1 C
b10 C
b11 C
b100 C
b101 C
b110 C
b111 C
b1000 C
b0 C
b1 C
b10 C
b11 C
b100 C
b101 C
b110 C
b111 C
b1000 C
b1001 C
b1010 C
b1011 C
b1100 C
b1101 C
b1110 C
b1111 C
b1111 =
1:
b10000 >
#18000
0#
b10000 ,
03
#18500
1#
13
b0 C
b1 C
b10 C
b11 C
b100 C
b101 C
b110 C
b111 C
b1000 C
b0 C
b1 C
b10 C
b11 C
b100 C
b101 C
b110 C
b111 C
b1000 C
b1001 C
b1010 C
b1011 C
b1100 C
b1101 C
b1110 C
b1111 C
17
b10000 =
b10 B
b10001 >
1'
#19000
0#
bz &
0%
06
bz 5
03
#19500
1#
13
b0 C
b1 C
b10 C
b11 C
b100 C
b101 C
b110 C
b111 C
b1000 C
b0 C
b1 C
b10 C
b11 C
b100 C
b101 C
b110 C
b111 C
b1000 C
b1001 C
b1010 C
b1011 C
b1100 C
b1101 C
b1110 C
b1111 C
b10 A
b10001 =
1;
b100 <
b1 @
#20000
0#
03
#20500
1#
13
b0 C
b1 C
b10 C
b11 C
b100 C
b101 C
b110 C
b111 C
b1000 C
b0 C
b1 C
b10 C
b11 C
b100 C
b101 C
b110 C
b111 C
b1000 C
b1001 C
b1010 C
b1011 C
b1100 C
b1101 C
b1110 C
b1111 C
18
b100 9
b1 ?
b1000 <
b10 @
b100 )
1(
#21000
0#
03
#21500
1#
b1 /
13
b0 C
b1 C
b10 C
b11 C
b100 C
b101 C
b110 C
b111 C
b1000 C
b0 C
b1 C
b10 C
b11 C
b100 C
b101 C
b110 C
b111 C
b1000 C
b1001 C
b1010 C
b1011 C
b1100 C
b1101 C
b1110 C
b1111 C
b1000 9
b10 ?
b1100 <
b11 @
b1000 )
#21600
b1 0
#22000
0#
03
#22500
1#
b1000 *
b10 /
13
b0 C
b1 C
b10 C
b11 C
b100 C
b101 C
b110 C
b111 C
b1000 C
b0 C
b1 C
b10 C
b11 C
b100 C
b101 C
b110 C
b111 C
b1000 C
b1001 C
b1010 C
b1011 C
b1100 C
b1101 C
b1110 C
b1111 C
b1100 9
b11 ?
b10000 <
b100 @
b1100 )
#22600
b10 0
#23000
0#
03
#23500
1#
b1100 *
b11 /
13
b0 C
b1 C
b10 C
b11 C
b100 C
b101 C
b110 C
b111 C
b1000 C
b0 C
b1 C
b10 C
b11 C
b100 C
b101 C
b110 C
b111 C
b1000 C
b1001 C
b1010 C
b1011 C
b1100 C
b1101 C
b1110 C
b1111 C
b10000 9
b100 ?
b10100 <
b101 @
b10000 )
#23600
b11 0
#24000
0#
03
#24500
1#
b10000 *
b100 /
13
b0 C
b1 C
b10 C
b11 C
b100 C
b101 C
b110 C
b111 C
b1000 C
b0 C
b1 C
b10 C
b11 C
b100 C
b101 C
b110 C
b111 C
b1000 C
b1001 C
b1010 C
b1011 C
b1100 C
b1101 C
b1110 C
b1111 C
b10100 9
b101 ?
b11000 <
b110 @
b10100 )
#24600
b100 0
#25000
0#
03
#25500
1#
b10100 *
b101 /
13
b0 C
b1 C
b10 C
b11 C
b100 C
b101 C
b110 C
b111 C
b1000 C
b0 C
b1 C
b10 C
b11 C
b100 C
b101 C
b110 C
b111 C
b1000 C
b1001 C
b1010 C
b1011 C
b1100 C
b1101 C
b1110 C
b1111 C
b11000 9
b110 ?
b11100 <
b111 @
b11000 )
#25600
b101 0
#26000
0#
03
#26500
1#
b11000 *
b110 /
13
b0 C
b1 C
b10 C
b11 C
b100 C
b101 C
b110 C
b111 C
b1000 C
b0 C
b1 C
b10 C
b11 C
b100 C
b101 C
b110 C
b111 C
b1000 C
b1001 C
b1010 C
b1011 C
b1100 C
b1101 C
b1110 C
b1111 C
b11100 9
b111 ?
b100000 <
b1000 @
b11100 )
#26600
b110 0
#27000
0#
03
#27500
1#
b11100 *
b111 /
13
b0 C
b1 C
b10 C
b11 C
b100 C
b101 C
b110 C
b111 C
b1000 C
b0 C
b1 C
b10 C
b11 C
b100 C
b101 C
b110 C
b111 C
b1000 C
b1001 C
b1010 C
b1011 C
b1100 C
b1101 C
b1110 C
b1111 C
b100000 9
b1000 ?
b11100 <
b1001 @
b100000 )
#27600
b111 0
#28000
0#
03
#28500
1#
b100000 *
b1000 /
13
b0 C
b1 C
b10 C
b11 C
b100 C
b101 C
b110 C
b111 C
b1000 C
b0 C
b1 C
b10 C
b11 C
b100 C
b101 C
b110 C
b111 C
b1000 C
b1001 C
b1010 C
b1011 C
b1100 C
b1101 C
b1110 C
b1111 C
b11100 9
b1001 ?
b11000 <
b1010 @
b11100 )
#28600
b1000 0
#29000
0#
03
#29500
1#
b11100 *
b1001 /
13
b0 C
b1 C
b10 C
b11 C
b100 C
b101 C
b110 C
b111 C
b1000 C
b0 C
b1 C
b10 C
b11 C
b100 C
b101 C
b110 C
b111 C
b1000 C
b1001 C
b1010 C
b1011 C
b1100 C
b1101 C
b1110 C
b1111 C
b11000 9
b1010 ?
b10100 <
b1011 @
b11000 )
#29600
b1001 0
#30000
0#
03
#30500
1#
b11000 *
b1010 /
13
b0 C
b1 C
b10 C
b11 C
b100 C
b101 C
b110 C
b111 C
b1000 C
b0 C
b1 C
b10 C
b11 C
b100 C
b101 C
b110 C
b111 C
b1000 C
b1001 C
b1010 C
b1011 C
b1100 C
b1101 C
b1110 C
b1111 C
b10100 9
b1011 ?
b10000 <
b1100 @
b10100 )
#30600
b1010 0
#31000
0#
03
#31500
1#
b10100 *
b1011 /
13
b0 C
b1 C
b10 C
b11 C
b100 C
b101 C
b110 C
b111 C
b1000 C
b0 C
b1 C
b10 C
b11 C
b100 C
b101 C
b110 C
b111 C
b1000 C
b1001 C
b1010 C
b1011 C
b1100 C
b1101 C
b1110 C
b1111 C
b10000 9
b1100 ?
b1100 <
b1101 @
b10000 )
#31600
b1011 0
#32000
0#
03
#32500
1#
b10000 *
b1100 /
13
b0 C
b1 C
b10 C
b11 C
b100 C
b101 C
b110 C
b111 C
b1000 C
b0 C
b1 C
b10 C
b11 C
b100 C
b101 C
b110 C
b111 C
b1000 C
b1001 C
b1010 C
b1011 C
b1100 C
b1101 C
b1110 C
b1111 C
b1100 9
b1101 ?
b1000 <
b1110 @
b1100 )
#32600
b1100 0
#33000
0#
03
#33500
1#
b1100 *
b1101 /
13
b0 C
b1 C
b10 C
b11 C
b100 C
b101 C
b110 C
b111 C
b1000 C
b0 C
b1 C
b10 C
b11 C
b100 C
b101 C
b110 C
b111 C
b1000 C
b1001 C
b1010 C
b1011 C
b1100 C
b1101 C
b1110 C
b1111 C
b1000 9
b1110 ?
b100 <
b1111 @
b1000 )
#33600
b1101 0
#34000
0#
03
#34500
1#
b1000 *
b1110 /
13
b0 C
b1 C
b10 C
b11 C
b100 C
b101 C
b110 C
b111 C
b1000 C
b0 C
b1 C
b10 C
b11 C
b100 C
b101 C
b110 C
b111 C
b1000 C
b1001 C
b1010 C
b1011 C
b1100 C
b1101 C
b1110 C
b1111 C
b100 9
b1111 ?
b0 B
0;
bx <
b10000 @
b100 )
#34600
b1110 0
#35000
0#
03
#35500
1#
b100 *
b1111 /
13
b0 C
b1 C
b10 C
b11 C
b100 C
b101 C
b110 C
b111 C
b1000 C
b0 C
b1 C
b10 C
b11 C
b100 C
b101 C
b110 C
b111 C
b1000 C
b1001 C
b1010 C
b1011 C
b1100 C
b1101 C
b1110 C
b1111 C
b0 A
08
bx 9
b10000 ?
b1 B
b0 <
b0 >
b0 @
bx )
0(
#35600
b1111 0
#36000
0#
03
#36500
1#
b1 *
13
b0 C
b1 C
b10 C
b11 C
b100 C
b101 C
b110 C
b111 C
b1000 C
b0 C
b1 C
b10 C
b11 C
b100 C
b101 C
b110 C
b111 C
b1000 C
b1001 C
b1010 C
b1011 C
b1100 C
b1101 C
b1110 C
b1111 C
b1 A
b0 9
b0 =
b0 ?
0:
b0 )
#37000
0#
03
#37500
1#
13
b0 C
b1 C
b10 C
b11 C
b100 C
b101 C
b110 C
b111 C
b1000 C
b0 C
b1 C
b10 C
b11 C
b100 C
b101 C
b110 C
b111 C
b1000 C
b1001 C
b1010 C
b1011 C
b1100 C
b1101 C
b1110 C
b1111 C
07
0'
#38000
0#
b1 &
1%
b10001 ,
16
b1 5
03
b1 >
#38500
1#
13
b0 C
b1 C
b10 C
b11 C
b100 C
b101 C
b110 C
b111 C
b1000 C
b0 C
b1 C
b10 C
b11 C
b100 C
b101 C
b110 C
b111 C
b1000 C
b1001 C
b1010 C
b1011 C
b1100 C
b1101 C
b1110 C
b1111 C
b1 =
b10 >
#39000
0#
b10010 ,
03
#39500
1#
13
b0 C
b1 C
b10 C
b11 C
b100 C
b101 C
b110 C
b111 C
b1000 C
b0 C
b1 C
b10 C
b11 C
b100 C
b101 C
b110 C
b111 C
b1000 C
b1001 C
b1010 C
b1011 C
b1100 C
b1101 C
b1110 C
b1111 C
b10 =
b11 >
#40000
0#
b10011 ,
03
#40500
1#
13
b0 C
b1 C
b10 C
b11 C
b100 C
b101 C
b110 C
b111 C
b1000 C
b0 C
b1 C
b10 C
b11 C
b100 C
b101 C
b110 C
b111 C
b1000 C
b1001 C
b1010 C
b1011 C
b1100 C
b1101 C
b1110 C
b1111 C
b11 =
b100 >
#41000
0#
b10100 ,
03
#41500
1#
13
b0 C
b1 C
b10 C
b11 C
b100 C
b101 C
b110 C
b111 C
b1000 C
b0 C
b1 C
b10 C
b11 C
b100 C
b101 C
b110 C
b111 C
b1000 C
b1001 C
b1010 C
b1011 C
b1100 C
b1101 C
b1110 C
b1111 C
b100 =
b101 >
#42000
0#
b10101 ,
03
#42500
1#
13
b0 C
b1 C
b10 C
b11 C
b100 C
b101 C
b110 C
b111 C
b1000 C
b0 C
b1 C
b10 C
b11 C
b100 C
b101 C
b110 C
b111 C
b1000 C
b1001 C
b1010 C
b1011 C
b1100 C
b1101 C
b1110 C
b1111 C
b101 =
b110 >
#43000
0#
b10110 ,
03
#43500
1#
13
b0 C
b1 C
b10 C
b11 C
b100 C
b101 C
b110 C
b111 C
b1000 C
b0 C
b1 C
b10 C
b11 C
b100 C
b101 C
b110 C
b111 C
b1000 C
b1001 C
b1010 C
b1011 C
b1100 C
b1101 C
b1110 C
b1111 C
b110 =
b111 >
#44000
0#
b10111 ,
03
#44500
1#
13
b0 C
b1 C
b10 C
b11 C
b100 C
b101 C
b110 C
b111 C
b1000 C
b0 C
b1 C
b10 C
b11 C
b100 C
b101 C
b110 C
b111 C
b1000 C
b1001 C
b1010 C
b1011 C
b1100 C
b1101 C
b1110 C
b1111 C
b111 =
b1000 >
#45000
0#
b11000 ,
03
#45500
1#
13
b0 C
b1 C
b10 C
b11 C
b100 C
b101 C
b110 C
b111 C
b1000 C
b0 C
b1 C
b10 C
b11 C
b100 C
b101 C
b110 C
b111 C
b1000 C
b1001 C
b1010 C
b1011 C
b1100 C
b1101 C
b1110 C
b1111 C
b1000 =
b1001 >
#46000
0#
b11001 ,
03
#46500
1#
13
b0 C
b1 C
b10 C
b11 C
b100 C
b101 C
b110 C
b111 C
b1000 C
b0 C
b1 C
b10 C
b11 C
b100 C
b101 C
b110 C
b111 C
b1000 C
b1001 C
b1010 C
b1011 C
b1100 C
b1101 C
b1110 C
b1111 C
b1001 =
b1010 >
#47000
0#
b10 &
b11010 ,
b10 5
03
#47500
1#
13
b0 C
b1 C
b10 C
b11 C
b100 C
b101 C
b110 C
b111 C
b1000 C
b0 C
b1 C
b10 C
b11 C
b100 C
b101 C
b110 C
b111 C
b1000 C
b1001 C
b1010 C
b1011 C
b1100 C
b1101 C
b1110 C
b1111 C
b1010 =
b1011 >
#48000
0#
b11 &
b11011 ,
b11 5
03
#48500
1#
13
b0 C
b1 C
b10 C
b11 C
b100 C
b101 C
b110 C
b111 C
b1000 C
b0 C
b1 C
b10 C
b11 C
b100 C
b101 C
b110 C
b111 C
b1000 C
b1001 C
b1010 C
b1011 C
b1100 C
b1101 C
b1110 C
b1111 C
b1011 =
b1100 >
#49000
0#
b100 &
b11100 ,
b100 5
03
#49500
1#
13
b0 C
b1 C
b10 C
b11 C
b100 C
b101 C
b110 C
b111 C
b1000 C
b0 C
b1 C
b10 C
b11 C
b100 C
b101 C
b110 C
b111 C
b1000 C
b1001 C
b1010 C
b1011 C
b1100 C
b1101 C
b1110 C
b1111 C
b1100 =
b1101 >
#50000
0#
b101 &
b11101 ,
b101 5
03
#50500
1#
13
b0 C
b1 C
b10 C
b11 C
b100 C
b101 C
b110 C
b111 C
b1000 C
b0 C
b1 C
b10 C
b11 C
b100 C
b101 C
b110 C
b111 C
b1000 C
b1001 C
b1010 C
b1011 C
b1100 C
b1101 C
b1110 C
b1111 C
b1101 =
b1110 >
#51000
0#
b110 &
b11110 ,
b110 5
03
#51500
1#
13
b0 C
b1 C
b10 C
b11 C
b100 C
b101 C
b110 C
b111 C
b1000 C
b0 C
b1 C
b10 C
b11 C
b100 C
b101 C
b110 C
b111 C
b1000 C
b1001 C
b1010 C
b1011 C
b1100 C
b1101 C
b1110 C
b1111 C
b1110 =
b1111 >
#52000
0#
b111 &
b11111 ,
b111 5
03
#52500
1#
13
b0 C
b1 C
b10 C
b11 C
b100 C
b101 C
b110 C
b111 C
b1000 C
b0 C
b1 C
b10 C
b11 C
b100 C
b101 C
b110 C
b111 C
b1000 C
b1001 C
b1010 C
b1011 C
b1100 C
b1101 C
b1110 C
b1111 C
b1111 =
1:
b10000 >
#53000
0#
b1000 &
b100000 ,
b1000 5
03
#53500
1#
13
b0 C
b1 C
b10 C
b11 C
b100 C
b101 C
b110 C
b111 C
b1000 C
b0 C
b1 C
b10 C
b11 C
b100 C
b101 C
b110 C
b111 C
b1000 C
b1001 C
b1010 C
b1011 C
b1100 C
b1101 C
b1110 C
b1111 C
17
b10000 =
b10 B
b10001 >
1'
#54000
0#
bz &
0%
06
bz 5
03
#54500
1#
13
b0 C
b1 C
b10 C
b11 C
b100 C
b101 C
b110 C
b111 C
b1000 C
b0 C
b1 C
b10 C
b11 C
b100 C
b101 C
b110 C
b111 C
b1000 C
b1001 C
b1010 C
b1011 C
b1100 C
b1101 C
b1110 C
b1111 C
b10 A
b10001 =
1;
b1 <
b1 @
#55000
0#
03
#55500
1#
13
b0 C
b1 C
b10 C
b11 C
b100 C
b101 C
b110 C
b111 C
b1000 C
b0 C
b1 C
b10 C
b11 C
b100 C
b101 C
b110 C
b111 C
b1000 C
b1001 C
b1010 C
b1011 C
b1100 C
b1101 C
b1110 C
b1111 C
18
b1 9
b1 ?
b11 <
b10 @
b1 )
1(
#56000
0#
03
#56500
1#
b10000 /
13
b0 C
b1 C
b10 C
b11 C
b100 C
b101 C
b110 C
b111 C
b1000 C
b0 C
b1 C
b10 C
b11 C
b100 C
b101 C
b110 C
b111 C
b1000 C
b1001 C
b1010 C
b1011 C
b1100 C
b1101 C
b1110 C
b1111 C
b11 9
b10 ?
b110 <
b11 @
b11 )
#56600
b10000 0
#57000
0#
03
#57500
1#
b11 *
b10001 /
13
b0 C
b1 C
b10 C
b11 C
b100 C
b101 C
b110 C
b111 C
b1000 C
b0 C
b1 C
b10 C
b11 C
b100 C
b101 C
b110 C
b111 C
b1000 C
b1001 C
b1010 C
b1011 C
b1100 C
b1101 C
b1110 C
b1111 C
b110 9
b11 ?
b1010 <
b100 @
b110 )
#57600
b10001 0
#58000
0#
03
#58500
1#
b110 *
b10010 /
13
b0 C
b1 C
b10 C
b11 C
b100 C
b101 C
b110 C
b111 C
b1000 C
b0 C
b1 C
b10 C
b11 C
b100 C
b101 C
b110 C
b111 C
b1000 C
b1001 C
b1010 C
b1011 C
b1100 C
b1101 C
b1110 C
b1111 C
b1010 9
b100 ?
b1111 <
b101 @
b1010 )
#58600
b10010 0
#59000
0#
03
#59500
1#
b1010 *
b10011 /
13
b0 C
b1 C
b10 C
b11 C
b100 C
b101 C
b110 C
b111 C
b1000 C
b0 C
b1 C
b10 C
b11 C
b100 C
b101 C
b110 C
b111 C
b1000 C
b1001 C
b1010 C
b1011 C
b1100 C
b1101 C
b1110 C
b1111 C
b1111 9
b101 ?
b10101 <
b110 @
b1111 )
#59600
b10011 0
#60000
0#
03
#60500
1#
b1111 *
b10100 /
13
b0 C
b1 C
b10 C
b11 C
b100 C
b101 C
b110 C
b111 C
b1000 C
b0 C
b1 C
b10 C
b11 C
b100 C
b101 C
b110 C
b111 C
b1000 C
b1001 C
b1010 C
b1011 C
b1100 C
b1101 C
b1110 C
b1111 C
b10101 9
b110 ?
b11100 <
b111 @
b10101 )
#60600
b10100 0
#61000
0#
03
#61500
1#
b10101 *
b10101 /
13
b0 C
b1 C
b10 C
b11 C
b100 C
b101 C
b110 C
b111 C
b1000 C
b0 C
b1 C
b10 C
b11 C
b100 C
b101 C
b110 C
b111 C
b1000 C
b1001 C
b1010 C
b1011 C
b1100 C
b1101 C
b1110 C
b1111 C
b11100 9
b111 ?
b100100 <
b1000 @
b11100 )
#61600
b10101 0
#62000
0#
03
#62500
1#
b11100 *
b10110 /
13
b0 C
b1 C
b10 C
b11 C
b100 C
b101 C
b110 C
b111 C
b1000 C
b0 C
b1 C
b10 C
b11 C
b100 C
b101 C
b110 C
b111 C
b1000 C
b1001 C
b1010 C
b1011 C
b1100 C
b1101 C
b1110 C
b1111 C
b100100 9
b1000 ?
b100011 <
b1001 @
b100100 )
#62600
b10110 0
#63000
0#
03
#63500
1#
b100100 *
b10111 /
13
b0 C
b1 C
b10 C
b11 C
b100 C
b101 C
b110 C
b111 C
b1000 C
b0 C
b1 C
b10 C
b11 C
b100 C
b101 C
b110 C
b111 C
b1000 C
b1001 C
b1010 C
b1011 C
b1100 C
b1101 C
b1110 C
b1111 C
b100011 9
b1001 ?
b100001 <
b1010 @
b100011 )
#63600
b10111 0
#64000
0#
03
#64500
1#
b100011 *
b11000 /
13
b0 C
b1 C
b10 C
b11 C
b100 C
b101 C
b110 C
b111 C
b1000 C
b0 C
b1 C
b10 C
b11 C
b100 C
b101 C
b110 C
b111 C
b1000 C
b1001 C
b1010 C
b1011 C
b1100 C
b1101 C
b1110 C
b1111 C
b100001 9
b1010 ?
b11110 <
b1011 @
b100001 )
#64600
b11000 0
#65000
0#
03
#65500
1#
b100001 *
b11001 /
13
b0 C
b1 C
b10 C
b11 C
b100 C
b101 C
b110 C
b111 C
b1000 C
b0 C
b1 C
b10 C
b11 C
b100 C
b101 C
b110 C
b111 C
b1000 C
b1001 C
b1010 C
b1011 C
b1100 C
b1101 C
b1110 C
b1111 C
b11110 9
b1011 ?
b11010 <
b1100 @
b11110 )
#65600
b11001 0
#66000
0#
03
#66500
1#
b11110 *
b11010 /
13
b0 C
b1 C
b10 C
b11 C
b100 C
b101 C
b110 C
b111 C
b1000 C
b0 C
b1 C
b10 C
b11 C
b100 C
b101 C
b110 C
b111 C
b1000 C
b1001 C
b1010 C
b1011 C
b1100 C
b1101 C
b1110 C
b1111 C
b11010 9
b1100 ?
b10101 <
b1101 @
b11010 )
#66600
b11010 0
#67000
0#
03
#67500
1#
b11010 *
b11011 /
13
b0 C
b1 C
b10 C
b11 C
b100 C
b101 C
b110 C
b111 C
b1000 C
b0 C
b1 C
b10 C
b11 C
b100 C
b101 C
b110 C
b111 C
b1000 C
b1001 C
b1010 C
b1011 C
b1100 C
b1101 C
b1110 C
b1111 C
b10101 9
b1101 ?
b1111 <
b1110 @
b10101 )
#67600
b11011 0
#68000
0#
03
#68500
1#
b10101 *
b11100 /
13
b0 C
b1 C
b10 C
b11 C
b100 C
b101 C
b110 C
b111 C
b1000 C
b0 C
b1 C
b10 C
b11 C
b100 C
b101 C
b110 C
b111 C
b1000 C
b1001 C
b1010 C
b1011 C
b1100 C
b1101 C
b1110 C
b1111 C
b1111 9
b1110 ?
b1000 <
b1111 @
b1111 )
#68600
b11100 0
#69000
0#
03
#69500
1#
b1111 *
b11101 /
13
b0 C
b1 C
b10 C
b11 C
b100 C
b101 C
b110 C
b111 C
b1000 C
b0 C
b1 C
b10 C
b11 C
b100 C
b101 C
b110 C
b111 C
b1000 C
b1001 C
b1010 C
b1011 C
b1100 C
b1101 C
b1110 C
b1111 C
b1000 9
b1111 ?
b0 B
0;
bx <
b10000 @
b1000 )
#69600
b11101 0
#70000
0#
03
#70500
1#
b1000 *
b11110 /
13
b0 C
b1 C
b10 C
b11 C
b100 C
b101 C
b110 C
b111 C
b1000 C
b0 C
b1 C
b10 C
b11 C
b100 C
b101 C
b110 C
b111 C
b1000 C
b1001 C
b1010 C
b1011 C
b1100 C
b1101 C
b1110 C
b1111 C
b0 A
08
bx 9
b10000 ?
b1 B
b0 <
b0 >
b0 @
bx )
0(
#70600
b11110 0
#71000
0#
03
#71500
1#
b1 *
13
b0 C
b1 C
b10 C
b11 C
b100 C
b101 C
b110 C
b111 C
b1000 C
b0 C
b1 C
b10 C
b11 C
b100 C
b101 C
b110 C
b111 C
b1000 C
b1001 C
b1010 C
b1011 C
b1100 C
b1101 C
b1110 C
b1111 C
b1 A
b0 9
b0 =
b0 ?
0:
b0 )
#72000
0#
03
#72500
1#
13
b0 C
b1 C
b10 C
b11 C
b100 C
b101 C
b110 C
b111 C
b1000 C
b0 C
b1 C
b10 C
b11 C
b100 C
b101 C
b110 C
b111 C
b1000 C
b1001 C
b1010 C
b1011 C
b1100 C
b1101 C
b1110 C
b1111 C
07
0'
#73000
0#
b1 &
1%
b100001 ,
16
b1 5
03
b1 >
#73500
1#
13
b0 C
b1 C
b10 C
b11 C
b100 C
b101 C
b110 C
b111 C
b1000 C
b0 C
b1 C
b10 C
b11 C
b100 C
b101 C
b110 C
b111 C
b1000 C
b1001 C
b1010 C
b1011 C
b1100 C
b1101 C
b1110 C
b1111 C
b1 =
b10 >
#74000
0#
b10 &
b100010 ,
b10 5
03
#74500
1#
13
b0 C
b1 C
b10 C
b11 C
b100 C
b101 C
b110 C
b111 C
b1000 C
b0 C
b1 C
b10 C
b11 C
b100 C
b101 C
b110 C
b111 C
b1000 C
b1001 C
b1010 C
b1011 C
b1100 C
b1101 C
b1110 C
b1111 C
b10 =
b11 >
#75000
0#
b11 &
b100011 ,
b11 5
03
#75500
1#
13
b0 C
b1 C
b10 C
b11 C
b100 C
b101 C
b110 C
b111 C
b1000 C
b0 C
b1 C
b10 C
b11 C
b100 C
b101 C
b110 C
b111 C
b1000 C
b1001 C
b1010 C
b1011 C
b1100 C
b1101 C
b1110 C
b1111 C
b11 =
b100 >
